%YAML 1.1
%TAG !u! tag:unity3d.com,2011:
--- !u!114 &11400000
MonoBehaviour:
  m_ObjectHideFlags: 0
  m_CorrespondingSourceObject: {fileID: 0}
  m_PrefabInstance: {fileID: 0}
  m_PrefabAsset: {fileID: 0}
  m_GameObject: {fileID: 0}
  m_Enabled: 1
  m_EditorHideFlags: 0
  m_Script: {fileID: 11500000, guid: ddd3572b5855f6a4bb700a6cffe2c6b8, type: 3}
  m_Name: CurvedSword
  m_EditorClassIdentifier: 
  WeaponName: 
  MovementSpeedModifier: 10
  WeaponPrefab: {fileID: 6937623146161485751, guid: 4d0814cafad460246890ec829fa7071d, type: 3}
  Range: 4
  AttackDamageModifier: 10
  AttackTimeDuration: 0.75
  Cooldown: 0.8
  SlashEffect: {fileID: 1814450909871590, guid: 39c46e4c2bd1a6d4c8384e4616fa48bc, type: 3}
